trace_file.vcd
$date
     Jan 08, 2023       15:57:10
$end

$version
 SystemC 2.3.1-Accellera --- Oct 21 2017 13:39:34
$end

$timescale
     1 ps
$end

$scope module SystemC $end
$var wire    1  aaaaa  clk       $end
$var wire    1  aaaab  reset_n       $end
$var wire    8  aaaac   [7:0]  $end
$var wire   24  aaaad  data_out [23:0]  $end
$upscope $end
$enddefinitions  $end

$comment
All initial values are dumped below at time 0 sec = 0 timescale units.
$end

$dumpvars
0aaaaa
0aaaab
b0 aaaac
b0 aaaad
$end

#12500
1aaaaa

#25000
0aaaaa

#37500
1aaaaa

#50000
0aaaaa
1aaaab

#62500
1aaaaa
b1100 aaaac

#75000
0aaaaa

#87500
1aaaaa
b100010 aaaac
b11000 aaaad

#100000
0aaaaa

#112500
1aaaaa
b10111 aaaac
b1110100 aaaad

#125000
0aaaaa

#137500
1aaaaa
b111000 aaaac
b1101110 aaaad

#150000
0aaaaa

#162500
1aaaaa
b100010 aaaac
b11000 aaaad

#175000
0aaaaa

#187500
1aaaaa
b1000001 aaaac
b100111110 aaaad

#200000
0aaaaa

#212500
1aaaaa
b11101010 aaaac
b100010000 aaaad

#225000
0aaaaa

#237500
1aaaaa
b1001100 aaaac
b1100110000 aaaad

#250000
0aaaaa

#262500
1aaaaa
b100 aaaac
b10001010000 aaaad

#275000
0aaaaa

#287500
1aaaaa
b101101 aaaac
b0 aaaad

#300000
0aaaaa

#312500
1aaaaa
b11 aaaac
b1000010010 aaaad

#325000
0aaaaa

#337500
1aaaaa
b1010111 aaaac
b100101001110 aaaad

#350000
0aaaaa

#362500
1aaaaa
b111000 aaaac
b1101011010 aaaad

#375000
0aaaaa

#387500
1aaaaa
b101101 aaaac
b0 aaaad

#400000
0aaaaa

#412500
1aaaaa
b100010 aaaac
b1100001000 aaaad

#425000
0aaaaa

#437500
1aaaaa
b1100011 aaaac
b1110110100 aaaad

#450000
0aaaaa

#462500
1aaaaa
b1000011 aaaac
b1100001000 aaaad

#475000
0aaaaa

#487500
1aaaaa
b1100 aaaac
b10010111000 aaaad

#500000
0aaaaa

#512500
1aaaaa
b1111100 aaaac
b0 aaaad

#525000
0aaaaa

#537500
1aaaaa
b10111 aaaac
b111011000 aaaad

#550000
0aaaaa

#562500
1aaaaa
b1101110 aaaac
b11000111000 aaaad

#575000
0aaaaa

#587500
1aaaaa
b1100 aaaac
b110011110 aaaad

#600000
0aaaaa

#612500
1aaaaa
b100010 aaaac
b110110100 aaaad

#625000
0aaaaa

#637500
1aaaaa
b110110 aaaac
b1001000100 aaaad

#650000
0aaaaa

#662500
1aaaaa
b100 aaaac
b10011000010 aaaad

#675000
0aaaaa

#687500
1aaaaa
b11 aaaac
b110011000 aaaad

#700000
0aaaaa

#712500
1aaaaa
b1 aaaac
b111010000 aaaad

#725000
0aaaaa

#737500
1aaaaa
b100010 aaaac
b1001010 aaaad

#750000
0aaaaa

#762500
1aaaaa
b110 aaaac
b1111010000 aaaad

#775000
0aaaaa

#787500
1aaaaa
b1000 aaaac
b101100000 aaaad

#800000
0aaaaa

#812500
1aaaaa
b1001 aaaac
b0 aaaad

#825000
0aaaaa

#837500
1aaaaa
b101 aaaac
b101100100 aaaad

#850000
0aaaaa

#862500
1aaaaa
b11 aaaac
b110000110 aaaad

#875000
0aaaaa

#887500
1aaaaa
b100 aaaac
b1110110 aaaad

#900000
0aaaaa

#912500
1aaaaa
b111000 aaaac
b0 aaaad

#925000
0aaaaa

#937500
1aaaaa
b100010 aaaac
b100110110 aaaad

#950000
0aaaaa

#962500
1aaaaa
b11 aaaac
b101111000 aaaad

#975000
0aaaaa

#987500
1aaaaa
b1011010 aaaac
b0 aaaad

#1000000
0aaaaa

#1012500
1aaaaa
b1011 aaaac
b10100000 aaaad

#1025000
0aaaaa

#1037500
1aaaaa
b1100 aaaac
b1110001100 aaaad

#1050000
0aaaaa

#1062500
1aaaaa
b1101 aaaac
b0 aaaad

#1075000
0aaaaa

#1087500
1aaaaa
b100010 aaaac

#1100000
0aaaaa

#1112500
1aaaaa
b1100 aaaac
b1100111000 aaaad

#1125000
0aaaaa

#1137500
1aaaaa
b10 aaaac
b1001011100 aaaad

#1150000
0aaaaa

#1162500
1aaaaa
b111 aaaac
b0 aaaad

#1175000
0aaaaa

#1187500
1aaaaa
b1000 aaaac
b110111110 aaaad

#1200000
0aaaaa

#1212500
1aaaaa
b101 aaaac
b111111010 aaaad

#1225000
0aaaaa

#1237500
1aaaaa
b1011010 aaaac
b10100000 aaaad

#1250000
0aaaaa

#1262500
1aaaaa
b1100 aaaac
b1001110 aaaad

#1275000
0aaaaa

#1287500
1aaaaa
b10111 aaaac
b1000001000 aaaad

#1300000
0aaaaa

#1312500
1aaaaa
b111110 aaaac
b0 aaaad

#1325000
0aaaaa

#1337500
1aaaaa
b1001000 aaaac
b101110010 aaaad

#1350000
0aaaaa

#1362500
1aaaaa
b1010010 aaaac
b1111100000 aaaad

#1375000
0aaaaa

#1387500
1aaaaa
b100000 aaaac
b110100010 aaaad

#1400000
0aaaaa

#1412500
1aaaaa
b1 aaaac
b0 aaaad

#1425000
0aaaaa

#1437500
1aaaaa
b11 aaaac
b1001101110 aaaad

#1450000
0aaaaa

#1462500
1aaaaa
b100 aaaac
b1100000100 aaaad

#1475000
0aaaaa

#1487500
1aaaaa
b101 aaaac
b1001101110 aaaad

#1500000
0aaaaa

#1512500
1aaaaa
b110 aaaac
b100100100 aaaad

#1525000
0aaaaa

#1537500
1aaaaa
b100 aaaac
b110 aaaad

#1550000
0aaaaa

#1562500
1aaaaa
b11 aaaac
b100111100 aaaad

#1575000
0aaaaa

#1587500
1aaaaa
b10 aaaac
b101000000 aaaad

#1600000
0aaaaa

#1612500
1aaaaa
b1 aaaac
b1100110 aaaad

#1625000
0aaaaa

#1637500
1aaaaa
b1100 aaaac
b110000 aaaad

#1650000
0aaaaa

#1662500
1aaaaa
b1110 aaaac
b111010 aaaad

#1675000
0aaaaa

#1687500
1aaaaa
b101 aaaac
b1100010 aaaad

#1700000
0aaaaa

#1712500
1aaaaa
b100 aaaac
b11100 aaaad

#1725000
0aaaaa

#1737500
1aaaaa
b10 aaaac
b0 aaaad

#1750000
0aaaaa

#1762500
1aaaaa
b111 aaaac
b1111100 aaaad

#1775000
0aaaaa

#1787500
1aaaaa
b1000 aaaac
b10011000 aaaad

#1800000
0aaaaa

#1812500
1aaaaa
b1001 aaaac
b101100 aaaad

#1825000
0aaaaa

#1837500
1aaaaa
b101101 aaaac
b10100 aaaad

#1850000
0aaaaa

#1862500
1aaaaa
b11 aaaac
b10100110 aaaad

#1875000
0aaaaa

#1887500
1aaaaa
b110 aaaac
b11101000 aaaad

#1900000
0aaaaa

#1912500
1aaaaa
b1001010 aaaac
b0 aaaad

#1925000
0aaaaa

#1937500
1aaaaa
b11 aaaac
b100110010 aaaad

#1950000
0aaaaa

#1962500
1aaaaa
b1010010 aaaac
b1001111010 aaaad

#1975000
0aaaaa

#1987500
1aaaaa
b1100 aaaac
b0 aaaad

#2000000
0aaaaa

#2012500
1aaaaa
b100010 aaaac
b100111110 aaaad

#2025000
0aaaaa

#2037500
1aaaaa
b10111 aaaac
b110011110 aaaad

#2050000
0aaaaa

#2062500
1aaaaa
b111000 aaaac
b1000000000 aaaad

#2075000
0aaaaa

#2087500
1aaaaa
b100010 aaaac
b100010000 aaaad

#2100000
0aaaaa

#2112500
1aaaaa
b1000001 aaaac
b1100000100 aaaad

#2125000
0aaaaa

#2137500
1aaaaa
b11101010 aaaac
b0 aaaad

#2150000
0aaaaa

#2162500
1aaaaa
b1001100 aaaac
b10001111110 aaaad

#2175000
0aaaaa

#2187500
1aaaaa
b100 aaaac
b10011110100 aaaad

#2200000
0aaaaa

#2212500
1aaaaa
b101101 aaaac
b0 aaaad

#2225000
0aaaaa

#2237500
1aaaaa
b11 aaaac
b1000010010 aaaad

#2250000
0aaaaa

#2262500
1aaaaa
b1010111 aaaac
b100101001110 aaaad

#2275000
0aaaaa

#2287500
1aaaaa
b111000 aaaac
b1101011010 aaaad

#2300000
0aaaaa

#2312500
1aaaaa
b101101 aaaac
b0 aaaad

#2325000
0aaaaa

#2337500
1aaaaa
b100010 aaaac
b1100001000 aaaad

#2350000
0aaaaa

#2362500
1aaaaa
b1100011 aaaac
b1110110100 aaaad

#2375000
0aaaaa

#2387500
1aaaaa
b1000011 aaaac
b1100001000 aaaad

#2400000
0aaaaa

#2412500
1aaaaa
b1100 aaaac
b10010111000 aaaad

#2425000
0aaaaa

#2437500
1aaaaa
b1111100 aaaac
b0 aaaad

#2450000
0aaaaa

#2462500
1aaaaa
b10111 aaaac
b111011000 aaaad

#2475000
0aaaaa

#2487500
1aaaaa
b1101110 aaaac
b11000111000 aaaad

#2500000
0aaaaa

#2512500
1aaaaa
b1100 aaaac
b110011110 aaaad

#2525000
0aaaaa

#2537500
1aaaaa
b100010 aaaac
b110110100 aaaad

#2550000
0aaaaa

#2562500
1aaaaa
b110110 aaaac
b1001000100 aaaad

#2575000
0aaaaa

#2587500
1aaaaa
b100 aaaac
b10011000010 aaaad

#2600000
0aaaaa

#2612500
1aaaaa
b11 aaaac
b110011000 aaaad

#2625000
0aaaaa

#2637500
1aaaaa
b1 aaaac
b111010000 aaaad

#2650000
0aaaaa

#2662500
1aaaaa
b100010 aaaac
b1001010 aaaad

#2675000
0aaaaa

#2687500
1aaaaa
b110 aaaac
b1111010000 aaaad

#2700000
0aaaaa

#2712500
1aaaaa
b1000 aaaac
b101100000 aaaad

#2725000
0aaaaa

#2737500
1aaaaa
b1001 aaaac
b0 aaaad

#2750000
0aaaaa

#2762500
1aaaaa
b101 aaaac
b101100100 aaaad

#2775000
0aaaaa

#2787500
1aaaaa
b11 aaaac
b110000110 aaaad

#2800000
0aaaaa

#2812500
1aaaaa
b100 aaaac
b1110110 aaaad

#2825000
0aaaaa

#2837500
1aaaaa
b111000 aaaac
b0 aaaad

#2850000
0aaaaa

#2862500
1aaaaa
b100010 aaaac
b100110110 aaaad

#2875000
0aaaaa

#2887500
1aaaaa
b11 aaaac
b101111000 aaaad

#2900000
0aaaaa

#2912500
1aaaaa
b1011010 aaaac
b0 aaaad

#2925000
0aaaaa

#2937500
1aaaaa
b1011 aaaac
b10100000 aaaad

#2950000
0aaaaa

#2962500
1aaaaa
b1100 aaaac
b1110001100 aaaad

#2975000
0aaaaa

#2987500
1aaaaa
b1101 aaaac
b0 aaaad

#3000000
0aaaaa

#3012500
1aaaaa
b100010 aaaac

#3025000
0aaaaa

#3037500
1aaaaa
b1100 aaaac
b1100111000 aaaad

#3050000
0aaaaa

#3062500
1aaaaa
b10 aaaac
b1001011100 aaaad

#3075000
0aaaaa

#3087500
1aaaaa
b111 aaaac
b0 aaaad

#3100000
0aaaaa

#3112500
1aaaaa
b1000 aaaac
b110111110 aaaad

#3125000
0aaaaa

#3137500
1aaaaa
b101 aaaac
b111111010 aaaad

#3150000
0aaaaa

#3162500
1aaaaa
b1011010 aaaac
b10100000 aaaad

#3175000
0aaaaa

#3187500
1aaaaa
b1100 aaaac
b1001110 aaaad

#3200000
0aaaaa

#3212500
1aaaaa
b10111 aaaac
b1000001000 aaaad

#3225000
0aaaaa

#3237500
1aaaaa
b111110 aaaac
b0 aaaad

#3250000
0aaaaa

#3262500
1aaaaa
b1001000 aaaac
b101110010 aaaad

#3275000
0aaaaa

#3287500
1aaaaa
b1010010 aaaac
b1111100000 aaaad

#3300000
0aaaaa

#3312500
1aaaaa
b100000 aaaac
b110100010 aaaad

#3325000
0aaaaa

#3337500
1aaaaa
b1 aaaac
b0 aaaad

#3350000
0aaaaa

#3362500
1aaaaa
b11 aaaac
b1001101110 aaaad

#3375000
0aaaaa

#3387500
1aaaaa
b100 aaaac
b1100000100 aaaad

#3400000
0aaaaa

#3412500
1aaaaa
b101 aaaac
b1001101110 aaaad

#3425000
0aaaaa

#3437500
1aaaaa
b110 aaaac
b100100100 aaaad

#3450000
0aaaaa

#3462500
1aaaaa
b100 aaaac
b110 aaaad

#3475000
0aaaaa

#3487500
1aaaaa
b11 aaaac
b100111100 aaaad

#3500000
0aaaaa

#3512500
1aaaaa
b10 aaaac
b101000000 aaaad

#3525000
0aaaaa

#3537500
1aaaaa
b1 aaaac
b1100110 aaaad

#3550000
0aaaaa

#3562500
1aaaaa
b1100 aaaac
b110000 aaaad

#3575000
0aaaaa

#3587500
1aaaaa
b1110 aaaac
b111010 aaaad

#3600000
0aaaaa

#3612500
1aaaaa
b101 aaaac
b1100010 aaaad

#3625000
0aaaaa

#3637500
1aaaaa
b100 aaaac
b11100 aaaad

#3650000
0aaaaa

#3662500
1aaaaa
b10 aaaac
b0 aaaad

#3675000
0aaaaa

#3687500
1aaaaa
b111 aaaac
b1111100 aaaad

#3700000
0aaaaa

#3712500
1aaaaa
b1000 aaaac
b10011000 aaaad

#3725000
0aaaaa

#3737500
1aaaaa
b1001 aaaac
b101100 aaaad

#3750000
0aaaaa

#3762500
1aaaaa
b1010010 aaaac
b10100 aaaad

#3775000
0aaaaa

#3787500
1aaaaa
b100000 aaaac
b11110000 aaaad

#3800000
0aaaaa

#3812500
1aaaaa
b1 aaaac
b110110110 aaaad

#3825000
0aaaaa

#3837500
1aaaaa
b11 aaaac
b0 aaaad

#3850000
0aaaaa

#3862500
1aaaaa
b100 aaaac
b101100 aaaad

#3875000
0aaaaa

#3887500
1aaaaa
b101 aaaac
b1011100000 aaaad

#3900000
0aaaaa

#3912500
1aaaaa
b110 aaaac
b110100110 aaaad

#3925000
0aaaaa

#3937500
1aaaaa
b100 aaaac
b0 aaaad

#3950000
0aaaaa

#3962500
1aaaaa
b11 aaaac
b10111110 aaaad

#3975000
0aaaaa

#3987500
1aaaaa
b10 aaaac
b101000000 aaaad

#4000000
0aaaaa

#4012500
1aaaaa
b1 aaaac
b1100110 aaaad

#4025000
0aaaaa

#4037500
1aaaaa
b1100 aaaac
b110000 aaaad

#4050000
0aaaaa

#4062500
1aaaaa
b1110 aaaac
b111010 aaaad

#4075000
0aaaaa

#4087500
1aaaaa
b101 aaaac
b1100010 aaaad

#4100000
0aaaaa

#4112500
1aaaaa
b100 aaaac
b11100 aaaad

#4125000
0aaaaa

#4137500
1aaaaa
b10 aaaac
b0 aaaad

#4150000
0aaaaa

#4162500
1aaaaa
b111 aaaac
b1111100 aaaad

#4175000
0aaaaa

#4187500
1aaaaa
b1000 aaaac
b10011000 aaaad

#4200000
0aaaaa

#4212500
1aaaaa
b1100 aaaac
b101100 aaaad

#4225000
0aaaaa

#4237500
1aaaaa
b100010 aaaac
b11010 aaaad

#4250000
0aaaaa

#4262500
1aaaaa
b10111 aaaac
b10011100 aaaad

#4275000
0aaaaa

#4287500
1aaaaa
b111000 aaaac
b11010010 aaaad

#4300000
0aaaaa

#4312500
1aaaaa
b100010 aaaac
b1110100 aaaad

#4325000
0aaaaa

#4337500
1aaaaa
b1000001 aaaac
b100110100 aaaad

#4350000
0aaaaa

#4362500
1aaaaa
b11101010 aaaac
b100000000 aaaad

#4375000
0aaaaa

#4387500
1aaaaa
b1001100 aaaac
b1101011110 aaaad

#4400000
0aaaaa

#4412500
1aaaaa
b100 aaaac
b10001100000 aaaad

#4425000
0aaaaa

#4437500
1aaaaa
b101101 aaaac
b0 aaaad

#4450000
0aaaaa

#4462500
1aaaaa
b11 aaaac
b1000010010 aaaad

#4475000
0aaaaa

#4487500
1aaaaa
b1010111 aaaac
b100101001110 aaaad

#4500000
0aaaaa

#4512500
1aaaaa
b111000 aaaac
b1101011010 aaaad

#4525000
0aaaaa

#4537500
1aaaaa
b101101 aaaac
b0 aaaad

#4550000
0aaaaa

#4562500
1aaaaa
b100010 aaaac
b1100001000 aaaad

#4575000
0aaaaa

#4587500
1aaaaa
b1100011 aaaac
b1110110100 aaaad

#4600000
0aaaaa

#4612500
1aaaaa
b1000011 aaaac
b1100001000 aaaad

#4625000
0aaaaa

#4637500
1aaaaa
b1100 aaaac
b10010111000 aaaad

#4650000
0aaaaa

#4662500
1aaaaa
b1111100 aaaac
b0 aaaad

#4675000
0aaaaa

#4687500
1aaaaa
b10111 aaaac
b111011000 aaaad

#4700000
0aaaaa

#4712500
1aaaaa
b1101110 aaaac
b11000111000 aaaad

#4725000
0aaaaa

#4737500
1aaaaa
b1100 aaaac
b110011110 aaaad

#4750000
0aaaaa

#4762500
1aaaaa
b100010 aaaac
b110110100 aaaad

#4775000
0aaaaa

#4787500
1aaaaa
b110110 aaaac
b1001000100 aaaad

#4800000
0aaaaa

#4812500
1aaaaa
b100 aaaac
b10011000010 aaaad

#4825000
0aaaaa

#4837500
1aaaaa
b11 aaaac
b110011000 aaaad

#4850000
0aaaaa

#4862500
1aaaaa
b1 aaaac
b111010000 aaaad

#4875000
0aaaaa

#4887500
1aaaaa
b100010 aaaac
b1001010 aaaad

#4900000
0aaaaa

#4912500
1aaaaa
b110 aaaac
b1111010000 aaaad

#4925000
0aaaaa

#4937500
1aaaaa
b1000 aaaac
b101100000 aaaad

#4950000
0aaaaa

#4962500
1aaaaa
b1001 aaaac
b0 aaaad

#4975000
0aaaaa

#4987500
1aaaaa
b101 aaaac
b101100100 aaaad

#5000000
0aaaaa

#5012500
1aaaaa
b11 aaaac
b110000110 aaaad

#5025000
0aaaaa

#5037500
1aaaaa
b100 aaaac
b1110110 aaaad

#5050000
0aaaaa

#5062500
1aaaaa
b111000 aaaac
b0 aaaad

#5075000
0aaaaa

#5087500
1aaaaa
b100010 aaaac
b100110110 aaaad

#5100000
0aaaaa

#5112500
1aaaaa
b11 aaaac
b101111000 aaaad

#5125000
0aaaaa

#5137500
1aaaaa
b1011010 aaaac
b0 aaaad

#5150000
0aaaaa

#5162500
1aaaaa
b1011 aaaac
b10100000 aaaad

#5175000
0aaaaa

#5187500
1aaaaa
b1100 aaaac
b1110001100 aaaad

#5200000
0aaaaa

#5212500
1aaaaa
b1101 aaaac
b0 aaaad

#5225000
0aaaaa

#5237500
1aaaaa
b100010 aaaac

#5250000
0aaaaa

#5262500
1aaaaa
b1100 aaaac
b1100111000 aaaad

#5275000
0aaaaa

#5287500
1aaaaa
b10 aaaac
b1001011100 aaaad

#5300000
0aaaaa

#5312500
1aaaaa
b111 aaaac
b0 aaaad

#5325000
0aaaaa

#5337500
1aaaaa
b1000 aaaac
b110111110 aaaad

#5350000
0aaaaa

#5362500
1aaaaa
b101 aaaac
b111111010 aaaad

#5375000
0aaaaa

#5387500
1aaaaa
b1011010 aaaac
b10100000 aaaad

#5400000
0aaaaa

#5412500
1aaaaa
b1100 aaaac
b1001110 aaaad

#5425000
0aaaaa

#5437500
1aaaaa
b10111 aaaac
b1000001000 aaaad

#5450000
0aaaaa

#5462500
1aaaaa
b111110 aaaac
b0 aaaad

#5475000
0aaaaa

#5487500
1aaaaa
b1001000 aaaac
b101110010 aaaad

#5500000
0aaaaa

#5512500
1aaaaa
b1010010 aaaac
b1111100000 aaaad

#5525000
0aaaaa

#5537500
1aaaaa
b100000 aaaac
b110100010 aaaad

#5550000
0aaaaa

#5562500
1aaaaa
b1 aaaac
b0 aaaad

#5575000
0aaaaa

#5587500
1aaaaa
b11 aaaac
b1001101110 aaaad

#5600000
0aaaaa

#5612500
1aaaaa
b100 aaaac
b1100000100 aaaad

#5625000
0aaaaa

#5637500
1aaaaa
b101 aaaac
b1001101110 aaaad

#5650000
0aaaaa

#5662500
1aaaaa
b110 aaaac
b100100100 aaaad

#5675000
0aaaaa

#5687500
1aaaaa
b100 aaaac
b110 aaaad

#5700000
0aaaaa

#5712500
1aaaaa
b11 aaaac
b100111100 aaaad

#5725000
0aaaaa

#5737500
1aaaaa
b10 aaaac
b101000000 aaaad

#5750000
0aaaaa

#5762500
1aaaaa
b1 aaaac
b1100110 aaaad

#5775000
0aaaaa

#5787500
1aaaaa
b1100 aaaac
b110000 aaaad

#5800000
0aaaaa

#5812500
1aaaaa
b1110 aaaac
b111010 aaaad

#5825000
0aaaaa

#5837500
1aaaaa
b101 aaaac
b1100010 aaaad

#5850000
0aaaaa

#5862500
1aaaaa
b100 aaaac
b11100 aaaad

#5875000
0aaaaa

#5887500
1aaaaa
b10 aaaac
b0 aaaad

#5900000
0aaaaa

#5912500
1aaaaa
b111 aaaac
b1111100 aaaad

#5925000
0aaaaa

#5937500
1aaaaa
b1000 aaaac
b10011000 aaaad

#5950000
0aaaaa

#5962500
1aaaaa
b1001 aaaac
b101100 aaaad

#5975000
0aaaaa

#5987500
1aaaaa
b101101 aaaac
b10100 aaaad

#6000000
0aaaaa

#6012500
1aaaaa
b11 aaaac
b10100110 aaaad

#6025000
0aaaaa

#6037500
1aaaaa
b110 aaaac
b11101000 aaaad

#6050000
0aaaaa

#6062500
1aaaaa
b1001010 aaaac
b0 aaaad

#6075000
0aaaaa

#6087500
1aaaaa
b11 aaaac
b100110010 aaaad

#6100000
0aaaaa

#6112500
1aaaaa
b1010010 aaaac
b1001111010 aaaad

#6125000
0aaaaa

#6137500
1aaaaa
b1100 aaaac
b0 aaaad

#6150000
0aaaaa

#6162500
1aaaaa
b100010 aaaac
b100111110 aaaad

#6175000
0aaaaa

#6187500
1aaaaa
b10111 aaaac
b110011110 aaaad

#6200000
0aaaaa

#6212500
1aaaaa
b111000 aaaac
b1000000000 aaaad

#6225000
0aaaaa

#6237500
1aaaaa
b100010 aaaac
b100010000 aaaad

#6250000
0aaaaa

#6262500
1aaaaa
b1000001 aaaac
b1100000100 aaaad

#6275000
0aaaaa

#6287500
1aaaaa
b11101010 aaaac
b0 aaaad

#6300000
0aaaaa

#6312500
1aaaaa
b1001100 aaaac
b10001111110 aaaad

#6325000
0aaaaa

#6337500
1aaaaa
b100 aaaac
b10011110100 aaaad

#6350000
0aaaaa

#6362500
1aaaaa
b101101 aaaac
b0 aaaad

#6375000
0aaaaa

#6387500
1aaaaa
b11 aaaac
b1000010010 aaaad

#6400000
0aaaaa

#6412500
1aaaaa
b1010111 aaaac
b100101001110 aaaad

#6425000
0aaaaa

#6437500
1aaaaa
b111000 aaaac
b1101011010 aaaad

#6450000
0aaaaa

#6462500
1aaaaa
b101101 aaaac
b0 aaaad

#6475000
0aaaaa

#6487500
1aaaaa
b100010 aaaac
b1100001000 aaaad

#6500000
0aaaaa

#6512500
1aaaaa
b1100011 aaaac
b1110110100 aaaad

#6525000
0aaaaa

#6537500
1aaaaa
b1000011 aaaac
b1100001000 aaaad

#6550000
0aaaaa

#6562500
1aaaaa
b1100 aaaac
b10010111000 aaaad

#6575000
0aaaaa

#6587500
1aaaaa
b1111100 aaaac
b0 aaaad

#6600000
0aaaaa

#6612500
1aaaaa
b10111 aaaac
b111011000 aaaad

#6625000
0aaaaa

#6637500
1aaaaa
b1101110 aaaac
b11000111000 aaaad

#6650000
0aaaaa

#6662500
1aaaaa
b1100 aaaac
b110011110 aaaad

#6675000
0aaaaa

#6687500
1aaaaa
b100010 aaaac
b110110100 aaaad

#6700000
0aaaaa

#6712500
1aaaaa
b110110 aaaac
b1001000100 aaaad

#6725000
0aaaaa

#6737500
1aaaaa
b100 aaaac
b10011000010 aaaad

#6750000
0aaaaa

#6762500
1aaaaa
b11 aaaac
b110011000 aaaad

#6775000
0aaaaa

#6787500
1aaaaa
b1 aaaac
b111010000 aaaad

#6800000
0aaaaa

#6812500
1aaaaa
b100010 aaaac
b1001010 aaaad

#6825000
0aaaaa

#6837500
1aaaaa
b110 aaaac
b1111010000 aaaad

#6850000
0aaaaa

#6862500
1aaaaa
b1000 aaaac
b101100000 aaaad

#6875000
0aaaaa

#6887500
1aaaaa
b1001 aaaac
b0 aaaad

#6900000
0aaaaa

#6912500
1aaaaa
b101 aaaac
b101100100 aaaad

#6925000
0aaaaa

#6937500
1aaaaa
b11 aaaac
b110000110 aaaad

#6950000
0aaaaa

#6962500
1aaaaa
b100 aaaac
b1110110 aaaad

#6975000
0aaaaa

#6987500
1aaaaa
b111000 aaaac
b0 aaaad

#7000000
0aaaaa

#7012500
1aaaaa
b100010 aaaac
b100110110 aaaad

#7025000
0aaaaa

#7037500
1aaaaa
b11 aaaac
b101111000 aaaad

#7050000
0aaaaa

#7062500
1aaaaa
b1011010 aaaac
b0 aaaad

#7075000
0aaaaa

#7087500
1aaaaa
b1011 aaaac
b10100000 aaaad

#7100000
0aaaaa

#7112500
1aaaaa
b1100 aaaac
b1110001100 aaaad

#7125000
0aaaaa

#7137500
1aaaaa
b1101 aaaac
b0 aaaad

#7150000
0aaaaa

#7162500
1aaaaa
b100010 aaaac

#7175000
0aaaaa

#7187500
1aaaaa
b1100 aaaac
b1100111000 aaaad

#7200000
0aaaaa

#7212500
1aaaaa
b10 aaaac
b1001011100 aaaad

#7225000
0aaaaa

#7237500
1aaaaa
b111 aaaac
b0 aaaad

#7250000
0aaaaa

#7262500
1aaaaa
b1000 aaaac
b110111110 aaaad

#7275000
0aaaaa

#7287500
1aaaaa
b101 aaaac
b111111010 aaaad

#7300000
0aaaaa

#7312500
1aaaaa
b1011010 aaaac
b10100000 aaaad

#7325000
0aaaaa

#7337500
1aaaaa
b1100 aaaac
b1001110 aaaad

#7350000
0aaaaa

#7362500
1aaaaa
b10111 aaaac
b1000001000 aaaad

#7375000
0aaaaa

#7387500
1aaaaa
b111110 aaaac
b0 aaaad

#7400000
0aaaaa

#7412500
1aaaaa
b1001000 aaaac
b101110010 aaaad

#7425000
0aaaaa

#7437500
1aaaaa
b1010010 aaaac
b1111100000 aaaad

#7450000
0aaaaa

#7462500
1aaaaa
b100000 aaaac
b110100010 aaaad

#7475000
0aaaaa

#7487500
1aaaaa
b1 aaaac
b0 aaaad

#7500000
0aaaaa

#7512500
1aaaaa
b11 aaaac
b1001101110 aaaad

#7525000
0aaaaa

#7537500
1aaaaa
b100 aaaac
b1100000100 aaaad

#7550000
0aaaaa

#7562500
1aaaaa
b101 aaaac
b1001101110 aaaad

#7575000
0aaaaa

#7587500
1aaaaa
b110 aaaac
b100100100 aaaad

#7600000
0aaaaa

#7612500
1aaaaa
b100 aaaac
b110 aaaad

#7625000
0aaaaa

#7637500
1aaaaa
b11 aaaac
b100111100 aaaad

#7650000
0aaaaa

#7662500
1aaaaa
b10 aaaac
b101000000 aaaad

#7675000
0aaaaa

#7687500
1aaaaa
b1 aaaac
b1100110 aaaad

#7700000
0aaaaa

#7712500
1aaaaa
b1100 aaaac
b110000 aaaad

#7725000
0aaaaa

#7737500
1aaaaa
b1110 aaaac
b111010 aaaad

#7750000
0aaaaa

#7762500
1aaaaa
b101 aaaac
b1100010 aaaad

#7775000
0aaaaa

#7787500
1aaaaa
b100 aaaac
b11100 aaaad

#7800000
0aaaaa

#7812500
1aaaaa
b10 aaaac
b0 aaaad

#7825000
0aaaaa

#7837500
1aaaaa
b111 aaaac
b1111100 aaaad

#7850000
0aaaaa

#7862500
1aaaaa
b1000 aaaac
b10011000 aaaad

#7875000
0aaaaa

#7887500
1aaaaa
b1001 aaaac
b101100 aaaad

#7900000
0aaaaa

#7912500
1aaaaa
b1010010 aaaac
b10100 aaaad

#7925000
0aaaaa

#7937500
1aaaaa
b100000 aaaac
b11110000 aaaad

#7950000
0aaaaa

#7962500
1aaaaa
b1 aaaac
b110110110 aaaad

#7975000
0aaaaa

#7987500
1aaaaa
b11 aaaac
b0 aaaad

#8000000
0aaaaa

#8012500
1aaaaa
b100 aaaac
b101100 aaaad

#8025000
0aaaaa

#8037500
1aaaaa
b101 aaaac
b1011100000 aaaad

#8050000
0aaaaa

#8062500
1aaaaa
b110 aaaac
b110100110 aaaad

#8075000
0aaaaa

#8087500
1aaaaa
b100 aaaac
b0 aaaad

#8100000
0aaaaa

#8112500
1aaaaa
b11 aaaac
b10111110 aaaad

#8125000
0aaaaa

#8137500
1aaaaa
b10 aaaac
b101000000 aaaad

#8150000
0aaaaa

#8162500
1aaaaa
b1 aaaac
b1100110 aaaad

#8175000
0aaaaa

#8187500
1aaaaa
b1100 aaaac
b110000 aaaad

#8200000
0aaaaa

#8212500
1aaaaa
b1110 aaaac
b111010 aaaad

#8225000
0aaaaa

#8237500
1aaaaa
b101 aaaac
b1100010 aaaad

#8250000
0aaaaa

#8262500
1aaaaa
b100 aaaac
b11100 aaaad

#8275000
0aaaaa

#8287500
1aaaaa
b10 aaaac
b0 aaaad

#8300000
0aaaaa

#8312500
1aaaaa
b111 aaaac
b1111100 aaaad

#8325000
0aaaaa

#8337500
1aaaaa
b1000 aaaac
b10011000 aaaad

#8350000
0aaaaa

#8362500
1aaaaa
b1100 aaaac
b101100 aaaad

#8375000
0aaaaa

#8387500
1aaaaa
b100010 aaaac
b11010 aaaad

#8400000
0aaaaa

#8412500
1aaaaa
b10111 aaaac
b10011100 aaaad

#8425000
0aaaaa

#8437500
1aaaaa
b111000 aaaac
b11010010 aaaad

#8450000
0aaaaa

#8462500
1aaaaa
b100010 aaaac
b1110100 aaaad

#8475000
0aaaaa

#8487500
1aaaaa
b1000001 aaaac
b100110100 aaaad

#8500000
0aaaaa

#8512500
1aaaaa
b11101010 aaaac
b100000000 aaaad

#8525000
0aaaaa

#8537500
1aaaaa
b1001100 aaaac
b1101011110 aaaad

#8550000
0aaaaa

#8562500
1aaaaa
b100 aaaac
b10001100000 aaaad

#8575000
0aaaaa

#8587500
1aaaaa
b101101 aaaac
b0 aaaad

#8600000
0aaaaa

#8612500
1aaaaa
b11 aaaac
b1000010010 aaaad

#8625000
0aaaaa

#8637500
1aaaaa
b1010111 aaaac
b100101001110 aaaad

#8650000
0aaaaa

#8662500
1aaaaa
b111000 aaaac
b1101011010 aaaad

#8675000
0aaaaa

#8687500
1aaaaa
b101101 aaaac
b0 aaaad

#8700000
0aaaaa

#8712500
1aaaaa
b100010 aaaac
b1100001000 aaaad

#8725000
0aaaaa

